…
``` r
read_csv("Data/cleaned_youtube_df.csv")
```

    ## Rows: 995 Columns: 18
    ## ── Column specification ────────────────────────────────────────────────────────
    ## Delimiter: ","
    ## chr  (4): category, country, abbreviation, channel_type
    ## dbl (14): id, subscribers, video_views, uploads, video_views_for_the_last_30...
    ## 
    ## ℹ Use `spec()` to retrieve the full column specification for this data.
    ## ℹ Specify the column types or set `show_col_types = FALSE` to quiet this message.

    ## # A tibble: 995 × 18
    ##       id subscribers  video_views category         uploads country  abbreviation
    ##    <dbl>       <dbl>        <dbl> <chr>              <dbl> <chr>    <chr>       
    ##  1     1   245000000 228000000000 Music              20082 India    IN          
    ##  2     2   170000000            0 Film & Animation       1 United … US          
    ##  3     3   166000000  28368841870 Entertainment        741 United … US          
    ##  4     4   162000000 164000000000 Education            966 United … US          
    ##  5     5   159000000 148000000000 Shows             116536 India    IN          
    ##  6     6   119000000            0 nan                    0 nan      nan         
    ##  7     7   112000000  93247040539 People & Blogs      1111 United … US          
    ##  8     8   111000000  29058044447 Gaming              4716 Japan    JP          
    ##  9     9   106000000  90479060027 People & Blogs       493 Russia   RU          
    ## 10    10    98900000  77180169894 Entertainment        574 United … US          
    ## # ℹ 985 more rows
    ## # ℹ 11 more variables: channel_type <chr>,
    ## #   video_views_for_the_last_30_days <dbl>, lowest_monthly_earnings <dbl>,
    ## #   highest_monthly_earnings <dbl>, lowest_yearly_earnings <dbl>,
    ## #   highest_yearly_earnings <dbl>, subscribers_for_last_30_days <dbl>,
    ## #   created_year <dbl>, population <dbl>, latitude <dbl>, longitude <dbl>
…
