Data cleaning
…
read_csv("Data/cleaned_youtube_df.csv")

## Rows: 589 Columns: 18
## ── Column specification ────────────────────────────────────────────────────────
## Delimiter: ","
## chr  (4): category, country, abbreviation, channel_type
## dbl (14): id, subscribers, video_views, uploads, video_views_for_the_last_30...
## 
## ℹ Use `spec()` to retrieve the full column specification for this data.
## ℹ Specify the column types or set `show_col_types = FALSE` to quiet this message.

## # A tibble: 589 × 18
##       id subscribers  video_views category       uploads country    abbreviation
##    <dbl>       <dbl>        <dbl> <chr>            <dbl> <chr>      <chr>       
##  1     1   245000000 228000000000 Music            20082 India      IN          
##  2     3   166000000  28368841870 Entertainment      741 United St… US          
##  3     4   162000000 164000000000 Education          966 United St… US          
##  4     5   159000000 148000000000 Shows           116536 India      IN          
##  5     9   106000000  90479060027 People & Blogs     493 Russia     RU          
##  6    10    98900000  77180169894 Entertainment      574 United St… US          
##  7    11    96700000  57856289381 Music             8548 India      IN          
##  8    12    96000000  77428473662 Sports           70127 United St… US          
##  9    14    89800000  32144597566 People & Blogs     543 South Kor… KR          
## 10    16    83000000 101000000000 Shows            71270 India      IN          
## # ℹ 579 more rows
## # ℹ 11 more variables: channel_type <chr>,
## #   video_views_for_the_last_30_days <dbl>, lowest_monthly_earnings <dbl>,
## #   highest_monthly_earnings <dbl>, lowest_yearly_earnings <dbl>,
## #   highest_yearly_earnings <dbl>, subscribers_for_last_30_days <dbl>,
## #   created_year <dbl>, population <dbl>, latitude <dbl>, longitude <dbl>
…
